[
  {
    "model":"flatpages.flatpage",
    "pk":1,
    "fields":{
      "url":"/privacy-policy",
      "title":"Privacy Policy",
      "content":"## The Human Text\r\n\r\n### A promise!\r\n\r\nBlender Foundation is committed to protect your privacy on [Blender ID](blender.org/id). No third party will track you here. You will not find third-party advertisements on any blender.org website.\r\n\r\n### Registration\r\n\r\nBlender ID is an authentication service, and as such, when you register an account, will collect a limited amount of personal information (name, email address, nickname). The data we gather for this service are only used for proper handling of this service.\r\n\r\n### Cookies\r\n\r\nBlender.org uses \u201ccookies\u201d, small text files placed on your computer, to manage registration and login, and to collect **anonymous** standard internet log information and visitor behaviour information.\r\n\r\nWe emphasize that blender.org only makes use of benign **first party cookies**.\r\n\r\nThe use of a first party cookie means that the website the visitor is actually viewing is the website that sets the cookie \u2013 not another website or advertiser. In other words, the setting of the cookie is completely controlled by us. We do not allow others to track you or to set cookies on your system when you visit blender.org. We do not allow others to put advertisement on our websites.\r\n\r\n### Analytics\r\n\r\nWe use [Google Analytics](http://analytics.google.com/) to help us analyse how visitors use this site. The anonymous information generated by Google Analytics cookies about your use of this website is transmitted to Google. This information is processed to compile statistical reports on website activity for _this site only_. We use these reports to improve the blender.org website structure and offering.\r\n\r\nWe occasionally share general usage and download statistics for visitors of blender.org with the public.\r\n\r\n### Social media\r\n\r\nPlease note: embedded content from other providers may track your interaction with our content. For example, if you click in an embedded video from YouTube, Google will track your interaction. Similarly a click on a social \u201cshare\u201d button will result in a third party tracking that activity.\r\n\r\n## The Legal Text\r\n\r\nThis Application collects some Personal Data from its Users.\r\n\r\n### Data Controller and Owner\r\n\r\nBlender Institute B.V. \u2013 Buikslotermeerplein 161 \u2013 1025 ET Amsterdam \u2013 the Netherlands, institute@blender.org\r\n\r\nBlender Institute has been authorised by Stichting Blender Foundation to conduct these services. Blender Institute is committed to comply to the goals of the public benefit free/open source project and community at blender.org.\r\n\r\nThis Privacy Policy outlines how this is being achieved.\r\n\r\n### Websites\r\n\r\nThis privacy policy is valid for blender.org/id.\r\n\r\n### Purpose of Service\r\n\r\nThe Blender ID website provides a central authentication for Blender.org websites and a selected set of third-party websites.\r\n\r\nInformation provided by Users, such as full name and email address, will only be used for the purpose of the service itself and to monitor traffic and usage.\r\n\r\n### Types of Data collected\r\n\r\nAmong the types of Personal Data that this Application collects, by itself or through third parties, there are: Cookie and Anonymised Usage Data, via Google Analytics. The Personal Data may be freely provided by the User, or collected automatically when using this Application. Any use of Cookies \u2013 or of other tracking tools \u2013 by this Application or by the owners of third party services used by this Application serves to identify Users and remember their preferences, for the sole purpose of providing the service required by the User. The User assumes responsibility for the Personal Data of third parties published or shared through this Application and declares to have the right to communicate or broadcast them, thus relieving the Data Controller of all responsibility.\r\n\r\n### Mode and place of processing the Data\r\n\r\n#### Method of processing\r\n\r\nThe Data Controller processes the Data of Users in proper manner and shall take appropriate security measures to prevent unauthorized access, disclosure, modification or unauthorized destruction of the Data. The Data processing is carried out using computers and/or IT enabled tools, following organizational procedures and modes strictly related to the purposes indicated.\r\n\r\nIn addition to the Data Controller, in some cases, the Data may be accessible to certain types of persons in charge, involved with the operation of the site (administration, sales, marketing, legal, system administration) or external parties (limited to third party technical service providers or hosting providers) appointed, if necessary, as Data Processors by the Owner. The list of these parties may be requested from the Data Controller at any time.\r\n\r\n#### Conservation Time\r\n\r\nThe Data is kept for the time necessary to provide the service requested by the User, or stated by the purposes outlined in this document, and the User can always request the Data Controller for their suspension or removal.\r\n\r\n#### Place of services\r\n\r\nThe Data is processed and kept in the heavily secured XS4all Colocation DataCenter in Amsterdam, the Netherlands.\r\n\r\n### The use of the collected Data\r\n\r\nThe Data concerning the User is collected to allow the Application to provide its services, as well as for the following purposes: Traffic and Usage Analytics. The Personal Data used for each purpose is outlined in the specific sections of this document.\r\n\r\nPersonal Data is collected for the following purposes and using the following services:\r\n\r\n*   Google Analytics\r\n\r\n### Additional information about Data collection and processing\r\n\r\n#### Legal Action\r\n\r\nThe User\u2019s Personal Data may be used for legal purposes by the Data Controller, in Court or in the stages leading to possible legal action arising from improper use of this Application or the related services.\r\n\r\n#### Additional Information about User\u2019s Personal Data\r\n\r\nIn addition to the information in this privacy policy, this Application may provide the User with contextual information concerning particular services or the collection and processing of Personal Data.\r\n\r\n#### System Logs and Maintenance\r\n\r\nFor operation and maintenance purposes, this Application and any third party services may collect files that record interaction with this Application (System Logs) or use for this purpose other Personal Data (such as IP Address).\r\n\r\n#### Information not contained in this policy\r\n\r\nMore details concerning the collection or processing of Personal Data may be requested from [the Data Controller](/contact) at any time.\r\n\r\n#### The rights of Users\r\n\r\nUsers have the right, at any time, to know whether their Personal Data has been stored and can consult the Data Controller to learn about their contents and origin, to verify their accuracy or to ask for them to be supplemented, cancelled, updated or corrected, or for their transformation into anonymous format or to block any data held in violation of the law, as well as to oppose their treatment for any and all legitimate reasons. Requests should be sent to the Data Controller at the contact information set out above. This Application does not support \u201cdo not track\u201d requests. To understand if any of the third party services it uses honor the \u201cdo not track\u201d requests, please read their privacy policies.\r\n\r\n#### Changes to this privacy policy\r\n\r\nThe Data Controller reserves the right to make changes to this privacy policy at any time by giving notice to its Users on this page. It is strongly recommended to check this page often, referring to the date of the last modification listed at the bottom. If a User objects to any of the changes to the Policy, the User must cease using this Application and can request the Data Controller to erase the Personal Data. Unless stated otherwise, the then-current privacy policy applies to all Personal Data the Data Controller has about Users.\r\n\r\n#### Definitions and legal references\r\n\r\nLatest update: May 22, 2018",
      "enable_comments":false,
      "template_name":"",
      "registration_required":false,
      "sites":[
        1
      ]
    }
  }
]
